\BOOKMARK [1][-]{section.1}{Introduction}{}% 1
\BOOKMARK [2][-]{subsection.1.1}{An alternative grounding}{section.1}% 2
\BOOKMARK [1][-]{section.2}{Model}{}% 3
\BOOKMARK [2][-]{subsection.2.1}{Body}{section.2}% 4
\BOOKMARK [2][-]{subsection.2.2}{Environment}{section.2}% 5
\BOOKMARK [2][-]{subsection.2.3}{Controller}{section.2}% 6
\BOOKMARK [3][-]{paragraph.2.3.0.1}{Tracking sensorimotor trajectories.}{subsection.2.3}% 7
\BOOKMARK [3][-]{subsubsection.2.3.1}{Nodes influence the sensorimotor state}{subsection.2.3}% 8
\BOOKMARK [1][-]{section.3}{Analysis}{}% 9
\BOOKMARK [1][-]{section.4}{Discussion}{}% 10
