\relax 
\providecommand\hyper@newdestlabel[2]{}
\providecommand\HyperFirstAtBeginDocument{\AtBeginDocument}
\HyperFirstAtBeginDocument{\ifx\hyper@anchor\@undefined
\global\let\oldcontentsline\contentsline
\gdef\contentsline#1#2#3#4{\oldcontentsline{#1}{#2}{#3}}
\global\let\oldnewlabel\newlabel
\gdef\newlabel#1#2{\newlabelxx{#1}#2}
\gdef\newlabelxx#1#2#3#4#5#6{\oldnewlabel{#1}{{#2}{#3}}}
\AtEndDocument{\ifx\hyper@anchor\@undefined
\let\contentsline\oldcontentsline
\let\newlabel\oldnewlabel
\fi}
\fi}
\global\let\hyper@last\relax 
\gdef\HyperFirstAtBeginDocument#1{#1}
\providecommand\HyField@AuxAddToFields[1]{}
\providecommand\HyField@AuxAddToCoFields[2]{}
\citation{tononi_information_2004}
\citation{thompson_explorations_1999}
\citation{gould_spandrels_1979}
\newcplabel{^_1}{1}
\@writefile{toc}{\contentsline {section}{\numberline {1}Introduction}{1}{section.1}\protected@file@percent }
\citation{oregan_sensorimotor_2001}
\citation{oregan_sensorimotor_2001}
\citation{egbert_modeling_2014,egbert_corrigendum_2015}
\@writefile{toc}{\contentsline {subsection}{\numberline {{1.1}}An alternative grounding}{2}{subsection.1.1}\protected@file@percent }
\@writefile{toc}{\contentsline {section}{\numberline {2}Model}{2}{section.2}\protected@file@percent }
\citation{egbert_corrigendum_2015,egbert_habit-based_2014,egbert_investigations_2018}
\@writefile{toc}{\contentsline {subsection}{\numberline {{2.1}}Body}{3}{subsection.2.1}\protected@file@percent }
\newlabel{eq:robot_motion}{{1}{3}{Body}{equation.2.1}{}}
\newlabel{eq:light_excitation}{{4}{3}{Body}{equation.2.4}{}}
\@writefile{toc}{\contentsline {subsection}{\numberline {{2.2}}Environment}{3}{subsection.2.2}\protected@file@percent }
\newlabel{eq:light}{{5}{3}{Environment}{equation.2.5}{}}
\@writefile{toc}{\contentsline {subsection}{\numberline {{2.3}}Controller}{3}{subsection.2.3}\protected@file@percent }
\@writefile{toc}{\contentsline {paragraph}{\numberline {{{2.3}.0}.1}Tracking sensorimotor trajectories.}{4}{paragraph.2.3.0.1}\protected@file@percent }
\citation{egbert_investigations_2018}
\@writefile{lof}{\contentsline {figure}{\numberline {1}{\ignorespaces Abstract motor-state to motor-state mapping.\relax }}{5}{figure.caption.1}\protected@file@percent }
\providecommand*\caption@xref[2]{\@setref\relax\@undefined{#1}}
\newlabel{fig:lambda}{{1}{5}{Abstract motor-state to motor-state mapping.\relax }{figure.caption.1}{}}
\newlabel{eq:ass_to_ss}{{7}{5}{Tracking sensorimotor trajectories}{equation.2.7}{}}
\newlabel{eq:distance_fn}{{8}{5}{Tracking sensorimotor trajectories}{equation.2.8}{}}
\newlabel{eq:familiarity}{{9}{5}{Tracking sensorimotor trajectories}{equation.2.9}{}}
\newlabel{eq:weight_to_omega_fn}{{10}{5}{Tracking sensorimotor trajectories}{equation.2.10}{}}
\citation{egbert_modeling_2014,egbert_corrigendum_2015}
\citation{buhrmann_dynamical_2013}
\newlabel{eq:weight_ODE}{{11}{6}{Tracking sensorimotor trajectories}{equation.2.11}{}}
\newlabel{eq:rejuvenation_term}{{12}{6}{Tracking sensorimotor trajectories}{equation.2.12}{}}
\@writefile{toc}{\contentsline {subsubsection}{\numberline {{{2.3}.1}}Nodes influence the sensorimotor state}{6}{subsubsection.2.3.1}\protected@file@percent }
\newlabel{eq:change_in_motor}{{13}{6}{Nodes influence the sensorimotor state}{equation.2.13}{}}
\newlabel{eq:component_removal}{{14}{6}{Nodes influence the sensorimotor state}{equation.2.14}{}}
\newlabel{eq:random_combination}{{15}{6}{Nodes influence the sensorimotor state}{equation.2.15}{}}
\@writefile{lot}{\contentsline {table}{\numberline {1}{\ignorespaces Parameters\relax }}{7}{table.caption.2}\protected@file@percent }
\newlabel{tab:parameters}{{1}{7}{Parameters\relax }{table.caption.2}{}}
\@writefile{toc}{\contentsline {section}{\numberline {3}Analysis}{7}{section.3}\protected@file@percent }
\@writefile{toc}{\contentsline {section}{\numberline {4}Discussion}{7}{section.4}\protected@file@percent }
\bibstyle{frontiersinSCNS_ENG_HUMS}
\bibdata{test}
\global\@namedef{@lastpage@}{8}
